{"page":1,"total_results":62,"total_pages":4,"results":[{"vote_count":154,"id":13022,"video":false,"vote_average":6.2,"title":"Rogue","popularity":9.963405,"poster_path":"\/pZC9HA9ngsG68vsGzwZwpSYFnDh.jpg","original_language":"en","original_title":"Rogue","genre_ids":[28,27,53],"backdrop_path":"\/2HpxNuR5iNSxSbEBRxd0YXJv3f6.jpg","adult":false,"overview":"From the director of Wolf Creek comes this terrifying look at nature's perfect killing machine. When a group of tourists stumble into the remote Australian river territory of an enormous crocodile, the deadly creature traps them on a tiny mud island with the tide quickly rising and darkness descending. As the hungry predator closes in, they must fight for survival against all odds.","release_date":"2007-11-08"},{"vote_count":432,"id":10431,"video":false,"vote_average":6,"title":"War","popularity":14.856326,"poster_path":"\/envBC1uSYRWVj2p3Im8XbPKZ4B5.jpg","original_language":"en","original_title":"War","genre_ids":[28,53,80],"backdrop_path":"\/p7xkGTUYTzU5IateDstefi0MBVG.jpg","adult":false,"overview":"FBI agent Jack Crawford is out for revenge when his partner is killed and all clues point to the mysterious assassin Rogue. But when Rogue turns up years later to take care of some unfinished business, he triggers a violent clash of rival gangs. Will the truth come out before it's too late? And when the dust settles, who will remain standing?","release_date":"2007-08-24"},{"vote_count":3335,"id":177677,"video":false,"vote_average":7.1,"title":"Mission: Impossible - Rogue Nation","popularity":18.412347,"poster_path":"\/z2sJd1OvAGZLxgjBdSnQoLCfn3M.jpg","original_language":"en","original_title":"Mission: Impossible - Rogue Nation","genre_ids":[28,12,53],"backdrop_path":"\/ubJFHt0WufOwaZhs28Vyzm6K4pL.jpg","adult":false,"overview":"Ethan and team take on their most impossible mission yet, eradicating the Syndicate - an International rogue organization as highly skilled as they are, committed to destroying the IMF.","release_date":"2015-07-23"},{"vote_count":5308,"id":330459,"video":false,"vote_average":7.4,"title":"Rogue One: A Star Wars Story","popularity":33.868388,"poster_path":"\/qjiskwlV1qQzRCjpV0cL9pEMF9a.jpg","original_language":"en","original_title":"Rogue One: A Star Wars Story","genre_ids":[28,12,878],"backdrop_path":"\/tZjVVIYXACV4IIIhXeIM59ytqwS.jpg","adult":false,"overview":"A rogue band of resistance fighters unite for a mission to steal the Death Star plans and bring a new hope to the galaxy.","release_date":"2016-12-14"},{"vote_count":0,"id":450054,"video":true,"vote_average":0,"title":"Rogue","popularity":1.09905,"poster_path":"\/m1VlGXkl5jkPwlClX5pNgoXFDVZ.jpg","original_language":"te","original_title":"రోగ్","genre_ids":[28,10749,53],"backdrop_path":"\/A0UYUSh14ZSmCnN7xjPAshn5QS.jpg","adult":false,"overview":"Ishaan falls in love with Anjali who eventually betrays him. Following which he develops a strong resentment towards women and especially those with the name ‘Anjali’.","release_date":"2017-03-31"},{"vote_count":33,"id":79550,"video":false,"vote_average":5,"title":"Rogue River","popularity":3.914404,"poster_path":"\/9Ut3yVUczdgQAfWl4fc1YsJOHII.jpg","original_language":"en","original_title":"Rogue River","genre_ids":[27,53],"backdrop_path":"\/j8KgEFXI3MwjZCjGPrr03e23Gjl.jpg","adult":false,"overview":"When a young woman takes a trip down Rogue River, her car mysteriously disappears. Lost without transport or communication, she accepts the hospitality of a stranger who offers her shelter for the night at his cabin. With no other options available, she reluctantly accepts only to forever regret it. The ensuing hours yield nothing but torture, indescribable pain, and horrific agony. If you've seen Misery, you've seen nothing. This movie starts where horror films end and leaves viewers paralysed by fear and disgust.","release_date":"2012-01-16"},{"vote_count":38,"id":21039,"video":false,"vote_average":6,"title":"Rogue Trader","popularity":3.604612,"poster_path":"\/9b0T5JqThPDwTACbNUzZxopPfAg.jpg","original_language":"en","original_title":"Rogue Trader","genre_ids":[18],"backdrop_path":"\/xQEMLENOpTuei46yJ1zrnMn9siY.jpg","adult":false,"overview":"Rogue Trader tells the true story of Nick Leeson, an employee of Barings Bank who--after a successful trading run--ends up accumulating $1.4 billion in losses hidden in account #88888.","release_date":"1999-01-01"},{"vote_count":0,"id":482091,"video":false,"vote_average":0,"title":"Rogue Elements","popularity":3.519063,"poster_path":"\/uCQFwXlYCo1euTq7S7lwcYHdoAN.jpg","original_language":"en","original_title":"Rogue Elements","genre_ids":[99],"backdrop_path":"\/hahXOVxkmlEJOoEGU2ky6JHARuV.jpg","adult":false,"overview":"In the winter of 2017, the magnitude of winter's force was on full display. Telephone pole-snapping storms pounded the Wyoming landscape. Regions to the west, recently left arid and forgotten, were gifted with unprecedented accumulation. Blizzards in Europe buried towns in an instant before disappearing just as fast, leaving the lucky few who were there to wonder if it even happened. A Bolivian expedition found grace above 18,000 feet before the elements went rogue and the humans reluctantly heeded warnings from above. ","release_date":"2017-10-24"},{"vote_count":0,"id":429514,"video":false,"vote_average":0,"title":"Rogue","popularity":1.021179,"poster_path":null,"original_language":"en","original_title":"Rogue","genre_ids":[53,878],"backdrop_path":null,"adult":false,"overview":"A hunter stalks his prey across a barren wilderness but all is not as it seems as the two finally come face to face.","release_date":"2015-05-12"},{"vote_count":5,"id":289535,"video":false,"vote_average":4.7,"title":"Operation Rogue","popularity":1.702057,"poster_path":"\/jt21oW3GDLsgYQN7k2Y26OBVcVO.jpg","original_language":"en","original_title":"Operation Rogue","genre_ids":[28],"backdrop_path":"\/qZZv40dS7KzrGVa26VUt61n9suV.jpg","adult":false,"overview":"Deep in the jungles of Southeast Asia, a terrorist organization has stolen materials to create a dangerous chemical bomb. It is up to Captain Max Randall and his team of Marines to stop them. But when Randall's team kill the terrorist leader's son, the group responds by kidnapping General Wallace's daughter. It is up to Randall to save her and stop the terrorist attack.","release_date":"2014-01-01"},{"vote_count":0,"id":146350,"video":false,"vote_average":0,"title":"Rogue Ninja","popularity":1.085613,"poster_path":"\/hsPgYM4jfMUJFiuL3SBTatJO63E.jpg","original_language":"ja","original_title":"Nukenin","genre_ids":[878,12,28],"backdrop_path":"\/pXyxt9ikUBZBkcM4QsDWk6CzANg.jpg","adult":false,"overview":"Set in 16th Century Japan, the film takes place against a background of civil war,  with the Iga ninja being ruled over by warlord Nobunaga Oda with an iron fist,  keeping them in check with harsh laws and handing out executions at will.  Mika Hijii plays Ukagami, the toughest female warrior of her clan,  who is sent out on a mission by the villainous ‘Lesser Ninja’  as part of his plot to take over the Iga. After his trap fails,  he kidnaps her childhood friend, pushing her to go against  the clan in a bloody mission of rescue and revenge.","release_date":"2009-01-13"},{"vote_count":0,"id":141752,"video":false,"vote_average":0,"title":"Rogue Male","popularity":1.381435,"poster_path":"\/qc6fYrkiXDlqAJ7QDbki8EGqSsP.jpg","original_language":"en","original_title":"Rogue Male","genre_ids":[18,53,10770],"backdrop_path":null,"adult":false,"overview":"Early in 1939 Sir Robert Thorndyke takes aim at Adolf Hitler with a high powered rifle, but the shot misses its mark. Captured and tortured by the Gestapo and left for dead, Sir Robert makes his way back to England where he discovers the Gestapo has followed him. Knowing that his government would turn him over to German authorities, Sir Robert goes underground in his battle with his pursuers.","release_date":"1976-09-22"},{"vote_count":0,"id":225446,"video":false,"vote_average":0,"title":"The Rogue","popularity":1.000011,"poster_path":"\/xikjyJHDZVgLLHFhE1smQDN3qYI.jpg","original_language":"bs","original_title":"Nokaut","genre_ids":[18],"backdrop_path":null,"adult":false,"overview":"Scourged by the need to be different from his contemporaries and driven by an insatiable hunger for adventurous living, Marko, a young man of 25, returns from America where he has spent a few years. He wants to impress people in his native town, but eventually everything turns against him.","release_date":"1971-01-01"},{"vote_count":3,"id":30036,"video":false,"vote_average":6.5,"title":"Rogue Cop","popularity":1.329392,"poster_path":"\/jSGzlBZfd5QiO2HfFfB7Y1aVv9y.jpg","original_language":"en","original_title":"Rogue Cop","genre_ids":[80],"backdrop_path":"\/tvt5WN0F1fB5udxgWgWOcWBSiMM.jpg","adult":false,"overview":"A police detective on the take tries to catch his brother's killer.","release_date":"1954-09-17"},{"vote_count":1,"id":322236,"video":false,"vote_average":5,"title":"Rogue Strike","popularity":1.147245,"poster_path":"\/iZ3WmjbV1XZFHFECPSQJq9RYOeD.jpg","original_language":"en","original_title":"Rogue Strike","genre_ids":[28],"backdrop_path":null,"adult":false,"overview":"When the Russian submarine K-519 sinks in the Pacific, a quirky crew of marine biologists battle a terrorist plot to recover the ultimate weapon of mass destruction. Diving to the deepest part of the ocean in an untested mini-submersible, a seasick documentary filmmaker and a maniacal sub captain clash as they are forced to choose between saving the ones they love or saving mankind!","release_date":"2014-12-16"},{"vote_count":1,"id":276562,"video":false,"vote_average":5,"title":"One Rogue Reporter","popularity":1.701407,"poster_path":"\/3ZNYEYA9SYFT2zbRQ5c8VyUnQSc.jpg","original_language":"en","original_title":"One Rogue Reporter","genre_ids":[35,99],"backdrop_path":null,"adult":false,"overview":"Rich Peppiatt delivers a satirical dissection of the newspaper trade by turning the tables on unscrupulous editors. Through a series of mischievous stunts and interviews with heavyweights of journalism, comedy &amp; politics, Peppiatt hilariously exposes the hypocrisy at the heart of modern journalism.","release_date":"2014-06-08"},{"vote_count":0,"id":135720,"video":false,"vote_average":0,"title":"Rogue Saints","popularity":1.109621,"poster_path":"\/2CbAdYTllIRwzMFbyXvvw6HLv1S.jpg","original_language":"en","original_title":"Rogue Saints","genre_ids":[],"backdrop_path":null,"adult":false,"overview":"Two guys, Nick and Dylan, set out to steal a gigantic diamond buried in the basement of a church. As the duo bumbles their way through their plans, they find that the people they’re trying to dupe are actually what they both need —quirky, chaotic, and imperfect, but loving and lovable… the family they’ve been looking for.","release_date":"2012-10-16"},{"vote_count":1,"id":418883,"video":false,"vote_average":10,"title":"Rogue Male","popularity":1.041297,"poster_path":"\/oTTKIkBovNoH5svfNXYsURMrUTM.jpg","original_language":"en","original_title":"Rogue Male","genre_ids":[],"backdrop_path":null,"adult":false,"overview":"A hunter attempts to assassinate a dictator, but fails and is captured and tortured. He successfully escapes back to England, but enemy agents and police are on the hunt for him.","release_date":""},{"vote_count":1,"id":332265,"video":false,"vote_average":4,"title":"The Magnificent Rogue","popularity":1.081969,"poster_path":"\/64HPnvdzO8MKGkJvclAMQilzV3Z.jpg","original_language":"de","original_title":"Mit Himbeergeist geht alles besser","genre_ids":[35],"backdrop_path":null,"adult":false,"overview":"","release_date":"1960-11-01"},{"vote_count":1,"id":114063,"video":false,"vote_average":0,"title":"The Rogue Song","popularity":1.489516,"poster_path":"\/7LM8eOxEyQhwjcY38Qd09yi4rUk.jpg","original_language":"en","original_title":"The Rogue Song","genre_ids":[10402,10749],"backdrop_path":null,"adult":false,"overview":"In czarist Russia, a princess falls for a dashing bandit leader, but their romance proves a stormy one.","release_date":"1930-05-09"}]}
